Minnesota Topsoil Classification for Soil Health Assessment - 18 PCA Cluster pairwise comparisons
…
  return(results_list)
  
}

18.6 Example function output

This is what the pairwise function I wrote above returns:

compare_clust_pairwise(soil_var = "ph1to1h2o",
                       k_opt = "k_8",
                       df = val_dat) 

$pairs_df
# A tibble: 21 × 3
   group1  group2   p.value
   <chr>   <chr>      <dbl>
 1 clust_2 clust_1 1   e+ 0
 2 clust_3 clust_1 1   e+ 0
 3 clust_3 clust_2 1   e+ 0
 4 clust_4 clust_1 1.66e- 1
 5 clust_4 clust_2 2.39e-13
 6 clust_4 clust_3 1.10e- 3
 7 clust_5 clust_1 7.83e- 1
 8 clust_5 clust_2 4.96e- 4
 9 clust_5 clust_3 7.43e- 2
10 clust_5 clust_4 2.43e- 3
# … with 11 more rows
…
