Minnesota Topsoil Classification for Soil Health Assessment - 20 (non-parametric) PCA Cluster pairwise comparisons
…
}

20.13 Example function output

This is what the pairwise function I wrote above returns:

ph_test <- compare_clust_pairwise(soil_var = "ph1to1h2o",
                       k_opt = "k_8",
                       df = val_dat) 

ph_test

$pairs_df
# A tibble: 21 × 10
   .y.       group1  group2     n1    n2 statistic        p   p.adj p.adj.signif
   <chr>     <chr>   <chr>   <int> <int>     <dbl>    <dbl>   <dbl> <chr>       
 1 ph1to1h2o clust_1 clust_2     5    47  -0.330   7.42e- 1 1   e+0 ns          
 2 ph1to1h2o clust_1 clust_3     5     6  -0.00407 9.97e- 1 1   e+0 ns          
 3 ph1to1h2o clust_1 clust_4     5     9   2.58    9.76e- 3 1.17e-1 ns          
 4 ph1to1h2o clust_1 clust_5     5    34   1.47    1.41e- 1 8.49e-1 ns          
 5 ph1to1h2o clust_1 clust_6     5    12   3.48    5.03e- 4 8.05e-3 **          
 6 ph1to1h2o clust_1 clust_7     5    27   1.67    9.44e- 2 8.49e-1 ns          
 7 ph1to1h2o clust_2 clust_3    47     6   0.352   7.25e- 1 1   e+0 ns          
 8 ph1to1h2o clust_2 clust_4    47     9   4.39    1.15e- 5 2.29e-4 ***         
 9 ph1to1h2o clust_2 clust_5    47    34   3.82    1.32e- 4 2.37e-3 **          
10 ph1to1h2o clust_2 clust_6    47    12   6.21    5.45e-10 1.14e-8 ****        
# ℹ 11 more rows
# ℹ 1 more variable: comparison <glue>
…
