Minnesota Topsoil Classification for Soil Health Assessment - 22 Welch ANOVA for PCA cluster pairwise comparisons
…
}

22.10 Example function output

This is what the pairwise function I wrote above returns:

ph_test <- compare_clust_pairwise(soil_var = "ph1to1h2o",
                       k_opt = "k_8",
                       df = val_dat) 

ph_test

$pairs_df
# A tibble: 21 × 9
   .y.       group1  group2  estimate conf.low conf.high    p.adj p.adj.signif
   <chr>     <chr>   <chr>      <dbl>    <dbl>     <dbl>    <dbl> <chr>       
 1 ph1to1h2o clust_1 clust_2 -0.119     -1.66      1.42  1   e+ 0 ns          
 2 ph1to1h2o clust_1 clust_3  0.00222   -1.50      1.50  1   e+ 0 ns          
 3 ph1to1h2o clust_1 clust_4  1.16      -0.399     2.71  1.32e- 1 ns          
 4 ph1to1h2o clust_1 clust_5  0.566     -0.926     2.06  6.68e- 1 ns          
 5 ph1to1h2o clust_1 clust_6  1.39      -0.165     2.94  7.4 e- 2 ns          
 6 ph1to1h2o clust_1 clust_7  0.625     -0.865     2.12  5.87e- 1 ns          
 7 ph1to1h2o clust_2 clust_3  0.122     -0.451     0.694 9.81e- 1 ns          
 8 ph1to1h2o clust_2 clust_4  1.28       0.953     1.60  0        ****        
 9 ph1to1h2o clust_2 clust_5  0.685      0.220     1.15  6.27e- 4 ***         
10 ph1to1h2o clust_2 clust_6  1.51       1.18      1.84  9.92e-13 ****        
# ℹ 11 more rows
# ℹ 1 more variable: comparison <glue>
…
